verify/utb/MS_SPI_XIP_CACHE_ahbl_tb.vcd
$date
	Fri Aug 25 11:49:45 2023
$end
$version
	Icarus Verilog
$end
$timescale
	1ps
$end
$scope module MS_QSPI_XIP_CACHE_ahbl_tb $end
$var wire 1 ! HREADY $end
$var wire 1 " miso $end
$var wire 1 # mosi $end
$var wire 2 $ pu [1:0] $end
$var wire 1 % sck $end
$var wire 1 & ce_n $end
$var wire 1 ' HREADYOUT $end
$var wire 32 ( HRDATA [31:0] $end
$var reg 32 ) HADDR [31:0] $end
$var reg 1 * HCLK $end
$var reg 1 + HRESETn $end
$var reg 1 , HSEL $end
$var reg 2 - HTRANS [1:0] $end
$var reg 32 . HWDATA [31:0] $end
$var reg 1 / HWRITE $end
$scope module DUV $end
$var wire 32 0 HADDR [31:0] $end
$var wire 1 * HCLK $end
$var wire 32 1 HRDATA [31:0] $end
$var wire 1 ! HREADY $end
$var wire 1 + HRESETn $end
$var wire 1 , HSEL $end
$var wire 2 2 HTRANS [1:0] $end
$var wire 1 / HWRITE $end
$var wire 1 3 fr_rd $end
$var wire 1 " miso $end
$var wire 1 # mosi $end
$var wire 1 % sck $end
$var wire 1 4 fr_done $end
$var wire 1 & ce_n $end
$var wire 128 5 c_line [127:0] $end
$var wire 1 6 c_hit $end
$var wire 32 7 c_datao [31:0] $end
$var wire 24 8 c_A [23:0] $end
$var reg 1 ' HREADYOUT $end
$var reg 2 9 c_wr [1:0] $end
$var reg 32 : last_HADDR [31:0] $end
$var reg 1 ; last_HSEL $end
$var reg 2 < last_HTRANS [1:0] $end
$var reg 1 = last_HWRITE $end
$var reg 2 > nstate [1:0] $end
$var reg 2 ? state [1:0] $end
$scope module CACHE $end
$var wire 24 @ A [23:0] $end
$var wire 24 A A_h [23:0] $end
$var wire 1 * clk $end
$var wire 1 6 hit $end
$var wire 1 + rst_n $end
$var wire 1 B wr $end
$var wire 16 C tag_h [15:0] $end
$var wire 16 D tag [15:0] $end
$var wire 4 E offset [3:0] $end
$var wire 128 F line [127:0] $end
$var wire 4 G index_h [3:0] $end
$var wire 4 H index [3:0] $end
$var wire 32 I Do [31:0] $end
$var integer 32 J i [31:0] $end
$upscope $end
$scope module FR $end
$var wire 8 K CMD [7:0] $end
$var wire 24 L addr [23:0] $end
$var wire 1 * clk $end
$var wire 8 M data_0 [7:0] $end
$var wire 8 N data_1 [7:0] $end
$var wire 8 O data_15 [7:0] $end
$var wire 1 " miso $end
$var wire 1 # mosi $end
$var wire 1 3 rd $end
$var wire 1 + rst_n $end
$var wire 128 P line [127:0] $end
$var wire 1 4 done $end
$var reg 1 & ce_n $end
$var reg 8 Q counter [7:0] $end
$var reg 1 R nstate $end
$var reg 24 S saddr [23:0] $end
$var reg 1 % sck $end
$var reg 1 T state $end
$scope begin genblk1[0] $end
$upscope $end
$scope begin genblk1[1] $end
$upscope $end
$scope begin genblk1[2] $end
$upscope $end
$scope begin genblk1[3] $end
$upscope $end
$scope begin genblk1[4] $end
$upscope $end
$scope begin genblk1[5] $end
$upscope $end
$scope begin genblk1[6] $end
$upscope $end
$scope begin genblk1[7] $end
$upscope $end
$scope begin genblk1[8] $end
$upscope $end
$scope begin genblk1[9] $end
$upscope $end
$scope begin genblk1[10] $end
$upscope $end
$scope begin genblk1[11] $end
$upscope $end
$scope begin genblk1[12] $end
$upscope $end
$scope begin genblk1[13] $end
$upscope $end
$scope begin genblk1[14] $end
$upscope $end
$scope begin genblk1[15] $end
$upscope $end
$upscope $end
$upscope $end
$scope module FLASH $end
$var wire 1 & CEb $end
$var wire 1 U HOLDb $end
$var wire 1 % SCK $end
$var wire 4 V SIO [3:0] $end
$var wire 1 W read_dual_io_flag $end
$var wire 1 X read_slow_flag $end
$var wire 4 Y Tds_inhibit [3:0] $end
$var reg 32 Z error_cnt [31:0] $end
$var reg 1 [ notifer_Tsckh $end
$var reg 1 \ notifer_Tsckl $end
$var reg 1 ] notifier_Fclk $end
$var reg 1 ^ notifier_Tceh $end
$var reg 1 _ notifier_Tces $end
$var reg 1 ` notifier_Tchh $end
$var reg 1 a notifier_Tchs $end
$var reg 1 b notifier_Tcph $end
$var reg 1 c notifier_Tds $end
$var reg 1 d notifier_Thhh $end
$var reg 1 e notifier_Thhs $end
$var reg 1 f notifier_Thls $end
$scope module I0 $end
$var event 1 g reset $end
$var event 1 h SQI_HS_READ_trg $end
$var event 1 i SPI_nVWLDR_trg $end
$var event 1 j SPI_WRSU_trg $end
$var event 1 k SPI_WRSR_trg $end
$var event 1 l SPI_WRRE_trg $end
$var event 1 m SPI_WBPR_trg $end
$var event 1 n SPI_ULBPR_trg $end
$var event 1 o SPI_SFDP_trg $end
$var event 1 p SPI_SE_trg $end
$var event 1 q SPI_SDOR_trg $end
$var event 1 r SPI_SDIOR_trg $end
$var event 1 s SPI_SB_trg $end
$var event 1 t SPI_RSID_trg $end
$var event 1 u SPI_READ_trg $end
$var event 1 v SPI_RDSR_trg $end
$var event 1 w SPI_RDCR_trg $end
$var event 1 x SPI_RBSPI_trg $end
$var event 1 y SPI_RBPR_trg $end
$var event 1 z SPI_QUAD_READ_trg $end
$var event 1 { SPI_QUAD_PP_trg $end
$var event 1 | SPI_QUAD_IO_READ_trg $end
$var event 1 } SPI_PSID_trg $end
$var event 1 ~ SPI_PP_trg $end
$var event 1 !" SPI_LSID_trg $end
$var event 1 "" SPI_LBPR_trg $end
$var event 1 #" SPI_JEDEC_ID_trg $end
$var event 1 $" SPI_EQIO_trg $end
$var event 1 %" SPI_DPD_RST_trg $end
$var event 1 &" SPI_CE_trg $end
$var event 1 '" SPI_BE_trg $end
$var wire 1 (" BPNV $end
$var wire 1 )" BUSY $end
$var wire 1 & CEb $end
$var wire 1 *" HOLDb $end
$var wire 1 +" HOLDb_IO $end
$var wire 1 % SCK $end
$var wire 4 ," SIO [3:0] $end
$var wire 32 -" protect_or [31:0] $end
$var wire 1 ." suspend_act $end
$var wire 1 /" write_protect $end
$var wire 8 0" status [7:0] $end
$var wire 8 1" config_reg [7:0] $end
$var wire 1 2" WPb $end
$var wire 1 3" WBPR_protection_lck $end
$var wire 1 4" CONFIG_protection_lck $end
$var reg 1 5" BE_flag $end
$var reg 1 6" CE_flag $end
$var reg 1 7" DPD $end
$var reg 1 8" EE $end
$var reg 1 9" IOC $end
$var reg 8 :" Mode_Configuration [7:0] $end
$var reg 1 ;" PE $end
$var reg 1 <" RES $end
$var reg 1 =" RSTEN $end
$var reg 8 >" RSTQIO_cmd [7:0] $end
$var reg 1 ?" SEC $end
$var reg 1 @" SE_flag $end
$var reg 4 A" SIO_IO [3:0] $end
$var reg 4 B" SIO_OUT [3:0] $end
$var reg 1 C" SPI_DPD_RST_RDID_active $end
$var reg 1 D" SPI_JEDEC_ID_active $end
$var reg 1 E" SPI_LSID_active $end
$var reg 1 F" SPI_PP_active $end
$var reg 1 G" SPI_PSID_active $end
$var reg 1 H" SPI_PSID_ip $end
$var reg 1 I" SPI_QUAD_IO_READ_active $end
$var reg 1 J" SPI_QUAD_PP_active $end
$var reg 1 K" SPI_RBPR_active $end
$var reg 1 L" SPI_RBSPI_active $end
$var reg 1 M" SPI_RDCR_active $end
$var reg 1 N" SPI_RDSR_active $end
$var reg 1 O" SPI_READ_QUAD_active $end
$var reg 1 P" SPI_READ_active $end
$var reg 1 Q" SPI_RSID_active $end
$var reg 1 R" SPI_SB_active $end
$var reg 1 S" SPI_SDIOR_active $end
$var reg 1 T" SPI_SDOR_active $end
$var reg 1 U" SPI_SFDP_active $end
$var reg 1 V" SPI_WBPR_active $end
$var reg 1 W" SPI_WRSR_PGM_active $end
$var reg 1 X" SPI_WRSR_active $end
$var reg 1 Y" SPI_WRSU_active $end
$var reg 1 Z" SPI_nVWLDR_active $end
$var reg 1 [" SPI_nVWLDR_cmd_active $end
$var reg 1 \" SQI_HS_READ_active $end
$var reg 1 ]" SQI_PP_active $end
$var reg 1 ^" SQI_SPI_mode $end
$var reg 1 _" WEL $end
$var reg 1 `" WPEN $end
$var reg 1 a" WPLD $end
$var reg 1 b" WSE $end
$var reg 1 c" WSP $end
$var reg 8 d" burst_length [7:0] $end
$var reg 1 e" clock $end
$var reg 1 f" clockx $end
$var reg 32 g" cnt [31:0] $end
$var reg 1 h" erase_active $end
$var reg 24 i" erase_addr [23:0] $end
$var reg 1 j" erase_ip $end
$var reg 32 k" erase_size [31:0] $end
$var reg 8 l" l_spi_cmd [7:0] $end
$var reg 8 m" l_sqi_cmd [7:0] $end
$var reg 1 n" page_program_active $end
$var reg 24 o" pgm_addr [23:0] $end
$var reg 16 p" pgm_id_addr [15:0] $end
$var reg 1 q" pgm_sus_reset $end
$var reg 32 r" protect [31:0] $end
$var reg 1 s" read_slow_flag $end
$var reg 24 t" resume_addr [23:0] $end
$var reg 32 u" resume_size [31:0] $end
$var reg 1 v" s_BE_flag $end
$var reg 1 w" s_SE_flag $end
$var reg 8 x" spi_cmd [7:0] $end
$var reg 8 y" spi_count [7:0] $end
$var reg 8 z" sqi_cmd [7:0] $end
$var reg 8 {" sqi_count [7:0] $end
$var reg 24 |" suspend_addr [23:0] $end
$var reg 32 }" t_wlldr_mem [31:0] $end
$var reg 1 ~" valid_addr $end
$var reg 1 !# valid_data $end
$var reg 32 "# wlldr_mem [31:0] $end
$var reg 8 ## wsr_creg [7:0] $end
$var reg 8 $# wsr_sreg [7:0] $end
$var real 1 %# erase_time $end
$var real 1 &# s_time_left $end
$var real 1 '# start_erase $end
$var real 1 (# time_left $end
$scope function Chip_proT $end
$var reg 24 )# addr [23:0] $end
$var reg 1 *# return_value $end
$upscope $end
$scope function ERASE_PGM $end
$var reg 25 +# erase_address [24:0] $end
$var reg 24 ,# erase_address_in [23:0] $end
$var reg 25 -# pgm_address [24:0] $end
$var reg 24 .# pgm_address_in [23:0] $end
$var reg 1 /# return_value $end
$upscope $end
$scope function PGM_ERASE $end
$var reg 25 0# erase_address [24:0] $end
$var reg 24 1# erase_address_in [23:0] $end
$var reg 25 2# pgm_address [24:0] $end
$var reg 24 3# pgm_address_in [23:0] $end
$var reg 1 4# return_value $end
$upscope $end
$scope function Read_proT $end
$var reg 24 5# addr [23:0] $end
$var reg 1 6# return_value $end
$var reg 25 7# taddr [24:0] $end
$upscope $end
$scope function Write_proT $end
$var reg 24 8# addr [23:0] $end
$var reg 25 9# address [24:0] $end
$var reg 8 :# index [7:0] $end
$var reg 1 ;# return_value $end
$var reg 25 <# taddr [24:0] $end
$upscope $end
$scope begin SPI_DPD_RST_RDID_label $end
$var reg 8 =# data [7:0] $end
$upscope $end
$scope begin SPI_DPD_RST_label $end
$upscope $end
$scope begin SPI_JEDEC_ID_label $end
$var reg 8 ># data [7:0] $end
$var reg 2 ?# ptr [1:0] $end
$upscope $end
$scope begin SPI_LSID_label $end
$upscope $end
$scope begin SPI_PP_label $end
$var reg 9 @# pcount [8:0] $end
$var reg 8 A# sdata [7:0] $end
$upscope $end
$scope begin SPI_PSID_label $end
$var reg 9 B# pcount [8:0] $end
$var reg 8 C# sdata [7:0] $end
$upscope $end
$scope begin SPI_QUAD_IO_READ_label $end
$var reg 24 D# addr [23:0] $end
$var reg 8 E# count [7:0] $end
$var reg 8 F# data [7:0] $end
$upscope $end
$scope begin SPI_QUAD_PP_label $end
$var reg 9 G# pcount [8:0] $end
$var reg 8 H# sdata [7:0] $end
$upscope $end
$scope begin SPI_QUAD_READ_label $end
$var reg 24 I# addr [23:0] $end
$var reg 8 J# data [7:0] $end
$upscope $end
$scope begin SPI_RBPR_label $end
$var reg 32 K# tmp_protect [31:0] $end
$upscope $end
$scope begin SPI_RBSPI_label $end
$var reg 24 L# addr [23:0] $end
$var reg 8 M# data [7:0] $end
$upscope $end
$scope begin SPI_RDCR_label $end
$var reg 8 N# data [7:0] $end
$upscope $end
$scope begin SPI_RDSR_label $end
$var reg 8 O# data [7:0] $end
$upscope $end
$scope begin SPI_READ_label $end
$var reg 24 P# addr [23:0] $end
$var reg 8 Q# data [7:0] $end
$upscope $end
$scope begin SPI_RSID_label $end
$var reg 16 R# addr [15:0] $end
$var reg 8 S# data [7:0] $end
$upscope $end
$scope begin SPI_SB_label $end
$var reg 8 T# bl [7:0] $end
$upscope $end
$scope begin SPI_SDIOR_label $end
$var reg 24 U# addr [23:0] $end
$var reg 8 V# count [7:0] $end
$var reg 8 W# data [7:0] $end
$upscope $end
$scope begin SPI_SDOR_label $end
$var reg 24 X# addr [23:0] $end
$var reg 8 Y# data [7:0] $end
$upscope $end
$scope begin SPI_SFDP_label $end
$var reg 11 Z# addr [10:0] $end
$var reg 8 [# data [7:0] $end
$upscope $end
$scope begin SPI_ULBPR_label $end
$var reg 8 \# count [7:0] $end
$upscope $end
$scope begin SPI_WBPR_label $end
$var reg 9 ]# ncount [8:0] $end
$upscope $end
$scope begin SPI_WRRE_label $end
$var reg 9 ^# pcount [8:0] $end
$upscope $end
$scope begin SPI_WRSR_PGM $end
$upscope $end
$scope begin SPI_WRSR_label $end
$upscope $end
$scope begin SPI_WRSU_label $end
$var reg 9 _# pcount [8:0] $end
$upscope $end
$scope begin SPI_nVWLDR_cmd_label $end
$var reg 9 `# ncount [8:0] $end
$upscope $end
$scope begin SPI_nVWLDR_label $end
$var reg 8 a# nn [7:0] $end
$upscope $end
$scope begin SQI_HS_READ_label $end
$var reg 24 b# addr [23:0] $end
$var reg 8 c# count [7:0] $end
$var reg 8 d# data [7:0] $end
$upscope $end
$scope begin Sec_ID_pgm_label $end
$var reg 24 e# nn [23:0] $end
$upscope $end
$scope begin erase_label $end
$var reg 32 f# nn [31:0] $end
$upscope $end
$scope begin erase_setup_label $end
$upscope $end
$scope begin page_program_label $end
$var reg 24 g# nn [23:0] $end
$upscope $end
$upscope $end
$scope task corrupt_all $end
$var reg 32 h# nn [31:0] $end
$upscope $end
$upscope $end
$scope task ahbl_w_read $end
$var reg 32 i# addr [31:0] $end
$upscope $end
$upscope $end
$enddefinitions $end
#0
$dumpvars
bx i#
bx h#
bx g#
bx f#
bx e#
bx d#
bx c#
bx b#
bx a#
bx `#
bx _#
bx ^#
bx ]#
bx \#
bx [#
bx Z#
bx Y#
bx X#
bx W#
bx V#
bx U#
bx T#
bx S#
bx R#
bx Q#
bx P#
bx O#
bx N#
bx M#
bx L#
bx K#
bx J#
bx I#
bx H#
bx G#
bx F#
bx E#
bx D#
bx C#
bx B#
bx A#
bx @#
bx ?#
bx >#
bx =#
bx <#
x;#
bx :#
bx 9#
bx 8#
bx 7#
x6#
bx 5#
x4#
bx 3#
bx 2#
bx 1#
bx 0#
x/#
bx .#
bx -#
bx ,#
bx +#
x*#
bx )#
r0 (#
r0 '#
r0 &#
r0 %#
bx $#
bx ##
b0 "#
0!#
0~"
bx }"
b0 |"
bx {"
b0 z"
b0 y"
b0 x"
0w"
0v"
bx u"
b0 t"
0s"
b1010101010101011111111111111111 r"
0q"
bx p"
bx o"
0n"
b0 m"
b0 l"
bx k"
0j"
bx i"
0h"
b100000000000 g"
0f"
0e"
b0 d"
0c"
0b"
0a"
0`"
0_"
0^"
0]"
0\"
0["
0Z"
0Y"
0X"
0W"
0V"
0U"
0T"
0S"
0R"
0Q"
0P"
0O"
0N"
0M"
0L"
0K"
0J"
0I"
0H"
0G"
0F"
0E"
0D"
xC"
b0 B"
bx A"
0@"
0?"
b0 >"
0="
0<"
0;"
b11111111 :"
19"
08"
07"
06"
05"
04"
03"
12"
b1010 1"
b0 0"
0/"
0."
b1010101010101011111111111111111 -"
b11z0 ,"
x+"
1*"
0)"
1("
1'"
1&"
1%"
1$"
1#"
1""
1!"
1~
1}
1|
1{
1z
1y
1x
1w
1v
1u
1t
1s
1r
1q
1p
1o
1n
1m
1l
1k
1j
1i
1h
1g
xf
xe
xd
xc
xb
xa
x`
x_
x^
x]
x\
x[
bx Z
b1111 Y
0X
0W
b11z0 V
1U
0T
b0 S
0R
b0 Q
bx P
bx O
bx N
bx M
b0 L
b11 K
b10000 J
bx I
bx H
b0 G
bx F
bx E
bx D
b0 C
xB
b0 A
bx @
b0 ?
b0 >
x=
bx <
x;
bx :
bx 9
bx 8
bx 7
06
bx 5
04
03
b0 2
bx 1
b0 0
0/
b0 .
b0 -
0,
0+
0*
b0 )
bx (
1'
1&
0%
b11 $
0#
z"
1!
$end
#5000
b0 E
b0 H
b0 D
b0 8
b0 @
b0 <
0=
b0 :
0;
bx0 9
b10000 J
1*
#7000
1+"
#10000
0*
#12500
b0 A"
#15000
0B
b0 9
b10000 J
1*
#20000
0*
#25000
b10000 J
1*
#30000
0*
#35000
b10000 J
1*
#40000
0*
#45000
b10000 J
1*
#50000
0*
#55000
b10000 J
1*
#60000
0*
#65000
b10000 J
1*
#70000
0*
#75000
b10000 J
1*
#80000
0*
#85000
b10000 J
1*
#90000
0*
#95000
b10000 J
1*
#100000
0*
#105000
b10000 J
1*
#110000
0*
#115000
b10000 J
1*
#120000
0*
#125000
b10000 J
1*
#130000
0*
#135000
b10000 J
1*
#140000
0*
#145000
b10000 J
1*
#150000
0*
#155000
b10000 J
1*
#160000
0*
#165000
b10000 J
1*
#170000
0*
#175000
b10000 J
1*
#180000
0*
#185000
1+
b10000 J
1*
#190000
0*
#195000
1*
#200000
0*
#205000
1*
#210000
0*
#215000
1*
#220000
0*
#225000
1*
#230000
0*
#235000
1*
#240000
0*
#245000
1*
#250000
0*
#255000
1*
#260000
0*
#265000
1*
#270000
0*
#275000
1*
#280000
0*
#285000
1*
b0 i#
#286000
1R
13
b1 >
b10 -
b10 2
1,
#290000
0*
#295000
1T
b1 ?
0!
0'
1R
03
b1 >
b0 -
b0 2
0,
1*
#300000
0*
#305000
b0 Y
b0 {"
0&
1*
#310000
0*
#315000
b1 y"
1e"
1f"
1%
1*
#320000
0*
#325000
0e"
0f"
b1 Q
0%
1*
#330000
0*
#335000
b10 y"
1e"
1f"
1%
1*
#340000
0*
#345000
0e"
0f"
b10 Q
0%
1*
#350000
0*
#355000
b11 y"
1e"
1f"
1%
1*
#360000
0*
#365000
0e"
0f"
b11 Q
0%
1*
#370000
0*
#375000
b100 y"
1e"
1f"
1%
1*
#380000
0*
#385000
0e"
0f"
b100 Q
0%
1*
#390000
0*
#395000
b101 y"
1e"
1f"
1%
1*
#400000
0*
#405000
0e"
0f"
b101 Q
0%
1*
#410000
0*
#415000
b110 y"
1e"
1f"
1%
1*
#420000
0*
#425000
1#
b11z1 V
b11z1 ,"
0e"
0f"
b110 Q
0%
1*
#430000
0*
#435000
b111 y"
b1 x"
1e"
1f"
1%
1*
#440000
0*
#445000
0e"
0f"
b111 Q
0%
1*
#450000
0*
#455000
1P"
b1000 y"
1u
b11 l"
b11 x"
1e"
1f"
1%
1*
#460000
0*
#465000
0#
b11z0 V
b11z0 ,"
0e"
0f"
b1000 Q
0%
1*
#470000
0*
#475000
b1001 y"
bx0 P#
1e"
1f"
1%
1*
#480000
0*
#485000
0e"
0f"
b1001 Q
0%
1*
#490000
0*
#495000
bx00 P#
1e"
1f"
1%
1*
#500000
0*
#505000
0e"
0f"
b1010 Q
0%
1*
#510000
0*
#515000
bx000 P#
1e"
1f"
1%
1*
#520000
0*
#525000
0e"
0f"
b1011 Q
0%
1*
#530000
0*
#535000
bx0000 P#
1e"
1f"
1%
1*
#540000
0*
#545000
0e"
0f"
b1100 Q
0%
1*
#550000
0*
#555000
bx00000 P#
1e"
1f"
1%
1*
#560000
0*
#565000
0e"
0f"
b1101 Q
0%
1*
#570000
0*
#575000
bx000000 P#
1e"
1f"
1%
1*
#580000
0*
#585000
0e"
0f"
b1110 Q
0%
1*
#590000
0*
#595000
bx0000000 P#
1e"
1f"
1%
1*
#600000
0*
#605000
0e"
0f"
b1111 Q
0%
1*
#610000
0*
#615000
bx00000000 P#
1e"
1f"
1%
1*
#620000
0*
#625000
0e"
0f"
b10000 Q
0%
1*
#630000
0*
#635000
bx000000000 P#
1e"
1f"
1%
1*
#640000
0*
#645000
0e"
0f"
b10001 Q
0%
1*
#650000
0*
#655000
bx0000000000 P#
1e"
1f"
1%
1*
#660000
0*
#665000
0e"
0f"
b10010 Q
0%
1*
#670000
0*
#675000
bx00000000000 P#
1e"
1f"
1%
1*
#680000
0*
#685000
0e"
0f"
b10011 Q
0%
1*
#690000
0*
#695000
bx000000000000 P#
1e"
1f"
1%
1*
#700000
0*
#705000
0e"
0f"
b10100 Q
0%
1*
#710000
0*
#715000
bx0000000000000 P#
1e"
1f"
1%
1*
#720000
0*
#725000
0e"
0f"
b10101 Q
0%
1*
#730000
0*
#735000
bx00000000000000 P#
1e"
1f"
1%
1*
#740000
0*
#745000
0e"
0f"
b10110 Q
0%
1*
#750000
0*
#755000
bx000000000000000 P#
1e"
1f"
1%
1*
#760000
0*
#765000
0e"
0f"
b10111 Q
0%
1*
#770000
0*
#775000
bx0000000000000000 P#
1e"
1f"
1%
1*
#780000
0*
#785000
0e"
0f"
b11000 Q
0%
1*
#790000
0*
#795000
bx00000000000000000 P#
1e"
1f"
1%
1*
#800000
0*
#805000
0e"
0f"
b11001 Q
0%
1*
#810000
0*
#815000
bx000000000000000000 P#
1e"
1f"
1%
1*
#820000
0*
#825000
0e"
0f"
b11010 Q
0%
1*
#830000
0*
#835000
bx0000000000000000000 P#
1e"
1f"
1%
1*
#840000
0*
#845000
0e"
0f"
b11011 Q
0%
1*
#850000
0*
#855000
bx00000000000000000000 P#
1e"
1f"
1%
1*
#860000
0*
#865000
0e"
0f"
b11100 Q
0%
1*
#870000
0*
#875000
bx000000000000000000000 P#
1e"
1f"
1%
1*
#880000
0*
#885000
0e"
0f"
b11101 Q
0%
1*
#890000
0*
#895000
bx0000000000000000000000 P#
1e"
1f"
1%
1*
#900000
0*
#905000
0e"
0f"
b11110 Q
0%
1*
#910000
0*
#915000
bx00000000000000000000000 P#
1e"
1f"
1%
1*
#920000
0*
#925000
0e"
0f"
b11111 Q
0%
1*
#930000
0*
#935000
b0 Q#
06#
b0 7#
b0 5#
1X
1s"
b1 P#
1e"
1f"
1%
1*
#940000
0*
#945000
0"
b1100 V
b1100 ,"
b10 Y
b10 A"
0e"
0f"
b100000 Q
0%
1*
#950000
0*
#955000
1e"
1f"
1%
1*
#960000
0*
#965000
0e"
0f"
bx0 M
bx0 5
bx0 F
bx0 P
b100001 Q
0%
1*
#970000
0*
#975000
1e"
1f"
1%
1*
#980000
0*
#985000
0e"
0f"
bx00 M
bx00 5
bx00 F
bx00 P
b100010 Q
0%
1*
#990000
0*
#995000
1e"
1f"
1%
1*
#1000000
0*
#1005000
0e"
0f"
bx000 M
bx000 5
bx000 F
bx000 P
b100011 Q
0%
1*
#1010000
0*
#1015000
1e"
1f"
1%
1*
#1020000
0*
#1025000
0e"
0f"
bx0000 M
bx0000 5
bx0000 F
bx0000 P
b100100 Q
0%
1*
#1030000
0*
#1035000
1e"
1f"
1%
1*
#1040000
0*
#1045000
0e"
0f"
bx00000 M
bx00000 5
bx00000 F
bx00000 P
b100101 Q
0%
1*
#1050000
0*
#1055000
1e"
1f"
1%
1*
#1060000
0*
#1065000
0e"
0f"
bx000000 M
bx000000 5
bx000000 F
bx000000 P
b100110 Q
0%
1*
#1070000
0*
#1075000
1e"
1f"
1%
1*
#1080000
0*
#1085000
0e"
0f"
bx0000000 M
bx0000000 5
bx0000000 F
bx0000000 P
b100111 Q
0%
1*
#1090000
b10 P#
b1 Q#
06#
b1 7#
b1 5#
0*
#1095000
1e"
1f"
1%
1*
#1100000
0*
#1105000
0e"
0f"
b0 M
bx00000000 5
bx00000000 F
bx00000000 P
b101000 Q
0%
1*
#1110000
b10 Q#
0*
#1115000
1e"
1f"
1%
1*
#1120000
0*
#1125000
0e"
0f"
bx0 N
bx000000000 5
bx000000000 F
bx000000000 P
b101001 Q
0%
1*
#1130000
b100 Q#
0*
#1135000
1e"
1f"
1%
1*
#1140000
0*
#1145000
0e"
0f"
bx00 N
bx0000000000 5
bx0000000000 F
bx0000000000 P
b101010 Q
0%
1*
#1150000
b1000 Q#
0*
#1155000
1e"
1f"
1%
1*
#1160000
0*
#1165000
0e"
0f"
bx000 N
bx00000000000 5
bx00000000000 F
bx00000000000 P
b101011 Q
0%
1*
#1170000
b10000 Q#
0*
#1175000
1e"
1f"
1%
1*
#1180000
0*
#1185000
0e"
0f"
bx0000 N
bx000000000000 5
bx000000000000 F
bx000000000000 P
b101100 Q
0%
1*
#1190000
b100000 Q#
0*
#1195000
1e"
1f"
1%
1*
#1200000
0*
#1205000
0e"
0f"
bx00000 N
bx0000000000000 5
bx0000000000000 F
bx0000000000000 P
b101101 Q
0%
1*
#1210000
b1000000 Q#
0*
#1215000
1e"
1f"
1%
1*
#1220000
0*
#1225000
0e"
0f"
bx000000 N
bx00000000000000 5
bx00000000000000 F
bx00000000000000 P
b101110 Q
0%
1*
#1230000
b10000000 Q#
0*
#1235000
1e"
1f"
1%
1*
#1240000
0*
#1245000
0e"
0f"
bx0000000 N
bx000000000000000 5
bx000000000000000 F
bx000000000000000 P
b101111 Q
0%
1*
#1250000
1"
b1110 V
b1110 ,"
b11 P#
06#
b10 7#
b10 5#
b10 Q#
b10 B"
0*
#1255000
1e"
1f"
1%
1*
#1260000
0*
#1265000
0e"
0f"
b1 N
bx0000000100000000 5
bx0000000100000000 F
bx0000000100000000 P
b110000 Q
0%
1*
#1270000
0"
b1100 V
b1100 ,"
b100 Q#
b0 B"
0*
#1275000
1e"
1f"
1%
1*
#1280000
0*
#1285000
0e"
0f"
bx00000000100000000 5
bx00000000100000000 F
bx00000000100000000 P
b110001 Q
0%
1*
#1290000
b1000 Q#
0*
#1295000
1e"
1f"
1%
1*
#1300000
0*
#1305000
0e"
0f"
bx000000000100000000 5
bx000000000100000000 F
bx000000000100000000 P
b110010 Q
0%
1*
#1310000
b10000 Q#
0*
#1315000
1e"
1f"
1%
1*
#1320000
0*
#1325000
0e"
0f"
bx0000000000100000000 5
bx0000000000100000000 F
bx0000000000100000000 P
b110011 Q
0%
1*
#1330000
b100000 Q#
0*
#1335000
1e"
1f"
1%
1*
#1340000
0*
#1345000
0e"
0f"
bx00000000000100000000 5
bx00000000000100000000 F
bx00000000000100000000 P
b110100 Q
0%
1*
#1350000
b1000000 Q#
0*
#1355000
1e"
1f"
1%
1*
#1360000
0*
#1365000
0e"
0f"
bx000000000000100000000 5
bx000000000000100000000 F
bx000000000000100000000 P
b110101 Q
0%
1*
#1370000
b10000000 Q#
0*
#1375000
1e"
1f"
1%
1*
#1380000
0*
#1385000
0e"
0f"
bx0000000000000100000000 5
bx0000000000000100000000 F
bx0000000000000100000000 P
b110110 Q
0%
1*
#1390000
1"
b1110 V
b1110 ,"
b0 Q#
b10 B"
0*
#1395000
1e"
1f"
1%
1*
#1400000
0*
#1405000
0e"
0f"
bx00000010000000100000000 5
bx00000010000000100000000 F
bx00000010000000100000000 P
b110111 Q
0%
1*
#1410000
0"
b1100 V
b1100 ,"
b100 P#
b11 Q#
06#
b11 7#
b11 5#
b0 B"
0*
#1415000
1e"
1f"
1%
1*
#1420000
0*
#1425000
0e"
0f"
bx000000100000000100000000 5
bx000000100000000100000000 F
bx000000100000000100000000 P
b111000 Q
0%
1*
#1430000
b110 Q#
0*
#1435000
1e"
1f"
1%
1*
#1440000
0*
#1445000
0e"
0f"
bx0000000100000000100000000 5
bx0000000100000000100000000 F
bx0000000100000000100000000 P
b111001 Q
0%
1*
#1450000
b1100 Q#
0*
#1455000
1e"
1f"
1%
1*
#1460000
0*
#1465000
0e"
0f"
bx00000000100000000100000000 5
bx00000000100000000100000000 F
bx00000000100000000100000000 P
b111010 Q
0%
1*
#1470000
b11000 Q#
0*
#1475000
1e"
1f"
1%
1*
#1480000
0*
#1485000
0e"
0f"
bx000000000100000000100000000 5
bx000000000100000000100000000 F
bx000000000100000000100000000 P
b111011 Q
0%
1*
#1490000
b110000 Q#
0*
#1495000
1e"
1f"
1%
1*
#1500000
0*
#1505000
0e"
0f"
bx0000000000100000000100000000 5
bx0000000000100000000100000000 F
bx0000000000100000000100000000 P
b111100 Q
0%
1*
#1510000
b1100000 Q#
0*
#1515000
1e"
1f"
1%
1*
#1520000
0*
#1525000
0e"
0f"
bx00000000000100000000100000000 5
bx00000000000100000000100000000 F
bx00000000000100000000100000000 P
b111101 Q
0%
1*
#1530000
b11000000 Q#
0*
#1535000
1e"
1f"
1%
1*
#1540000
0*
#1545000
0e"
0f"
bx000000000000100000000100000000 5
bx000000000000100000000100000000 F
bx000000000000100000000100000000 P
b111110 Q
0%
1*
#1550000
1"
b1110 V
b1110 ,"
b10000000 Q#
b10 B"
0*
#1555000
1e"
1f"
1%
1*
#1560000
0*
#1565000
0e"
0f"
bx0000001000000100000000100000000 5
bx0000001000000100000000100000000 F
bx0000001000000100000000100000000 P
b111111 Q
0%
1*
#1570000
b101 P#
06#
b100 7#
b100 5#
b100 Q#
0*
#1575000
1e"
1f"
1%
1*
#1580000
0*
#1585000
0e"
0f"
bx00000011000000100000000100000000 5
bx00000011000000100000000100000000 F
bx00000011000000100000000100000000 P
b1000000 Q
0%
1*
#1590000
0"
b1100 V
b1100 ,"
b1000 Q#
b0 B"
0*
#1595000
1e"
1f"
1%
1*
#1600000
0*
#1605000
0e"
0f"
bx000000011000000100000000100000000 5
bx000000011000000100000000100000000 F
bx000000011000000100000000100000000 P
b1000001 Q
0%
1*
#1610000
b10000 Q#
0*
#1615000
1e"
1f"
1%
1*
#1620000
0*
#1625000
0e"
0f"
bx0000000011000000100000000100000000 5
bx0000000011000000100000000100000000 F
bx0000000011000000100000000100000000 P
b1000010 Q
0%
1*
#1630000
b100000 Q#
0*
#1635000
1e"
1f"
1%
1*
#1640000
0*
